<?xml version="1.0" encoding="utf-8"?>
<!-- Generator: Adobe Illustrator 22.1.0, SVG Export Plug-In . SVG Version: 6.00 Build 0)  -->
<svg version="1.1" id="Capa_1" xmlns="http://www.w3.org/2000/svg" xmlns:xlink="http://www.w3.org/1999/xlink" x="0px" y="0px"
	 viewBox="0 0 1134.3 756.1" style="enable-background:new 0 0 1134.3 756.1;" xml:space="preserve">
<style type="text/css">
	.st0{fill:#FFFFFF;}
</style>
<path class="st0" d="M1134.3,756.1c-0.1-0.1-3-0.2-9.1-0.2c-118,0-260-148-347.7-263.8c-76.4-101-227.8-293.2-308.8-357.8
	c-76.1-60.7-163-136.6-344-134.3C84.5,0.6,42.4,1.4,0,11.2v744.9H1134.3z"/>
</svg>
