<?xml version="1.0" encoding="utf-8"?>
<!-- Generator: Adobe Illustrator 22.1.0, SVG Export Plug-In . SVG Version: 6.00 Build 0)  -->
<svg version="1.1" id="Capa_1" xmlns="http://www.w3.org/2000/svg" xmlns:xlink="http://www.w3.org/1999/xlink" x="0px" y="0px"
	 viewBox="0 0 2199.9 1438.4" style="enable-background:new 0 0 2199.9 1438.4;" xml:space="preserve">
<style type="text/css">
	.st0{fill:#5BC500;}
</style>
<path class="st0" d="M521.3,3.1c-99.2-12.3-288.7,10.9-420,340C44.1,486.5,8.3,639.4,13.5,828c4.8,174,35,327.9,57.9,413.5
	c7.9,29.5,22.1,61.1,33.7,81c33.4,57.2,101.6,63.4,132,53.4c33.2-10.9,74-42.8,72.9-128.8c-0.5-41.5-10.1-103.5-15.6-138
	c-16.8-105.8-41-234.1-32.3-321.8c11.6-117.3,59.7-126.1,91.2-128.6c52.9-4.1,88.1,58.4,119,134.8c36.9,91.2,99.6,252.5,151.8,376.3
	c47.1,111.8,145.3,238.1,328.8,256.2c187.2,18.4,334.3-33.3,436.4-247c76.4-159.9,130-279.9,206-399.8
	c87.4-137.9,187.4-204.2,259-169.6c66.4,32.1,74.2,102.6,61,202.7c-11.7,88.6-35.6,184.6-53.6,255.1c-6.6,25.6-19.1,77.1-21.1,106.5
	c-3.8,57.7,12.9,118.1,75.8,136.3c67.1,19.3,129.7-27.7,160.9-90.7c12.3-24.9,25.3-63.7,33.3-91.5c40.2-140.1,58.9-235.4,70.4-382.9
	c13.4-172.5,1.9-333.1-37.5-476.3c-37.7-136.9-115.7-232.2-229.7-255.7c-126.2-26-284.1,38-383.8,191.2
	c-91.9,141.2-170.2,288.4-215.6,362.7c-46.1,75.4-104.1,117.7-183.8,115c-97.5-3.4-170.4-84.8-217.1-192.8
	c-40.6-94.1-122.2-273.9-170.4-337.3C697.8,92.4,646.8,18.7,521.3,3.1z"/>
</svg>
