<svg width="53" height="23" viewBox="0 0 53 23" fill="none" xmlns="http://www.w3.org/2000/svg">
<mask id="mask0" mask-type="alpha" maskUnits="userSpaceOnUse" x="0" y="0" width="53" height="23">
<path fill-rule="evenodd" clip-rule="evenodd" d="M0 0.325317H52.5248V22.5893H0V0.325317Z" fill="white"/>
</mask>
<g mask="url(#mask0)">
<path fill-rule="evenodd" clip-rule="evenodd" d="M43.8112 19.7029H8.70906C4.70684 19.7029 2.83967 17.8048 2.83967 13.7403V9.17518C2.83967 5.10665 4.70684 3.21254 8.70906 3.21254H43.8072C47.8095 3.21254 49.6766 5.10665 49.6766 9.17518L49.6806 13.7403C49.6806 17.8048 47.8134 19.7029 43.8112 19.7029ZM50.3463 2.70797C48.8967 1.18227 46.801 0.38138 44.1145 0.325317H8.40574L8.26787 0.329322C5.64437 0.409411 3.59599 1.21431 2.17 2.70797C0.732201 4.23367 -0.000488281 6.4081 -0.000488281 9.17518V13.7403C-0.000488281 16.5074 0.732201 18.6858 2.17394 20.2035C3.67871 21.7892 5.87678 22.5901 8.70906 22.5901H43.8112C46.6474 22.5901 48.8455 21.7892 50.3463 20.2035C51.7959 18.6858 52.5247 16.5074 52.5247 13.7403V9.17518C52.5168 6.4081 51.7841 4.23367 50.3463 2.70797Z" fill="#58585B"/>
</g>
<path fill-rule="evenodd" clip-rule="evenodd" d="M8.99999 9C7.78976 9 7 9.63603 7 11C7 11.6544 7.18281 12.1397 7.50457 12.4743C7.85557 12.8272 8.37111 13 8.99999 13C9.62888 13 10.1444 12.8272 10.4954 12.4743C10.8172 12.1397 11 11.6581 11 11C11.0036 9.63603 10.2212 9 8.99999 9Z" fill="#58585B"/>
<path fill-rule="evenodd" clip-rule="evenodd" d="M16 9C14.7861 9 14 9.63603 14 11C14 11.6544 14.1828 12.1397 14.5046 12.4743C14.8556 12.8272 15.3711 13 16 13C16.6289 13 17.1444 12.8272 17.4954 12.4743C17.8172 12.1397 18 11.6581 18 11C18 9.63603 17.2139 9 16 9Z" fill="#58585B"/>
</svg>
