<svg width="93" height="90" viewBox="0 0 93 90" fill="none" xmlns="http://www.w3.org/2000/svg">
<path d="M61 82.0313C59.6278 83.4722 57.606 85.4318 56.0767 86.5472C54.5733 87.6539 52.8741 88.4394 51.1728 88.7932C50.7017 88.906 50.22 88.9668 49.7382 88.9928H49.7102C49.5274 89.0015 49.3618 89.0015 49.1962 88.9971C49.0262 88.9971 48.8563 88.9928 48.6929 88.982H48.6455C48.1638 88.9451 47.6841 88.8778 47.2217 88.7541C45.5247 88.3635 43.8384 87.5454 42.3629 86.4126C40.8552 85.2668 38.8699 83.2682 37.53 81.7991C35.5168 79.59 33.7294 77.5632 32.084 75.5754L31 74" stroke="#61BB46" stroke-width="1.839"/>
<path d="M60.6381 82C67.5918 74.7083 71.8235 69.4531 77.3601 60.7335C83.8298 50.5403 88.472 40.2342 90.9152 30.0671C93.2547 20.35 91.8873 11.8303 86.0613 6.54248C79.6153 0.680881 68.3543 -0.690521 57.5275 5.40363C55.5142 6.53814 53.529 7.70089 51.5935 8.87452C51.0189 9.20052 50.3427 9.38743 49.632 9.38091C48.9019 9.37222 48.2258 9.16792 47.6555 8.82018C45.7524 7.6183 43.7974 6.4186 41.8165 5.24715C31.115 -1.05782 19.8324 0.0962424 13.259 5.82309C7.32494 11.0023 5.7761 19.4871 7.91251 29.2521C8.39423 31.4581 8.97316 33.6728 9.65578 35.8896L10.5371 37.8196" stroke="#61BB46" stroke-width="1.839"/>
<path fill-rule="evenodd" clip-rule="evenodd" d="M29.9893 46.3066C29.9055 40.6455 28.2519 38 22.0692 38H8.28436C2.10597 38 1.09879 40.6455 1.00644 46.3066H1V46.7721V61.8222V65.1778V80.2236C1 86.2138 1.93632 89 8.28436 89H22.0692C28.4216 89 30 86.2138 30 80.2236V65.1778V61.8222V46.7721V46.3066H29.9893Z" stroke="#61BB46" stroke-width="1.342"/>
<path fill-rule="evenodd" clip-rule="evenodd" d="M21.3528 41H10.0351C4.85119 41 4.08117 43.1945 4.00878 47.8872H4V48.2785V60.748V63.5304V76C4.04826 75.9541 6.73126 75.9388 10.2852 75.9388C17.3996 75.9388 28 76 28 76V63.5304V60.748V48.2785V47.8872H27.9912C27.9232 43.1945 26.5367 41 21.3528 41ZM21.3528 42.4666C25.3455 42.4666 26.46 43.636 26.5236 47.9113L26.5324 48.285V60.748V63.5304V74.5246C23.3689 74.5093 15.7828 74.4722 10.2852 74.4722C8.01463 74.4722 6.50091 74.4722 5.46764 74.4919V63.5304V60.748V48.4227L5.47642 47.9113C5.54442 43.5682 6.00073 42.4666 10.0351 42.4666H21.3528Z" fill="#61BB46"/>
<path fill-rule="evenodd" clip-rule="evenodd" d="M13 72.0021C13 70.6359 13.731 70 15 70C16.269 70 17 70.6359 17 72.0021C17 73.3684 16.269 74 15 74C13.731 74 13 73.3684 13 72.0021Z" fill="#61BB46"/>
</svg>
