<svg width="161" height="88" viewBox="0 0 161 88" fill="none" xmlns="http://www.w3.org/2000/svg">
<path fill-rule="evenodd" clip-rule="evenodd" d="M71.7463 76H70.4118C68.4998 76 67.0065 76.6149 66.3651 77.9061C66.0928 78.4617 66 79.205 66 80.0077V86.7893C66 86.9368 66.0804 87 66.2475 87H68.2338C68.4008 87 68.4771 86.9368 68.4771 86.7893V81.1188C68.4771 80.318 68.4957 79.7337 68.539 79.3736C68.6566 78.4349 69.2671 77.9904 70.7006 77.9904H71.7546C71.9237 77.9904 72 77.91 72 77.7586V76.2318C72 76.0766 71.9175 76 71.7463 76Z" fill="#61BB46"/>
<mask id="mask0" mask-type="alpha" maskUnits="userSpaceOnUse" x="56" y="76" width="9" height="13">
<path fill-rule="evenodd" clip-rule="evenodd" d="M56.0593 76.3147H64.93V88.0001H56.0593V76.3147Z" fill="white"/>
</mask>
<g mask="url(#mask0)">
<path fill-rule="evenodd" clip-rule="evenodd" d="M62.6818 83.7527C62.6818 84.5987 62.6575 85.0947 62.3687 85.4487C62.0612 85.8167 61.5231 85.9987 60.79 85.9987H60.4337C59.0818 85.9987 58.3 85.4187 58.3 84.3067C58.3 83.8027 58.4837 83.3487 58.7762 83.0807C59.1212 82.7627 59.62 82.6127 60.4787 82.6127H60.6718C61.3243 82.6127 62.065 82.6787 62.6818 82.8547V83.7527ZM62.8712 76.7807C62.2675 76.5007 61.3506 76.3147 60.1693 76.3147H60.0231C59.3031 76.3147 58.3168 76.4087 57.3737 76.5927C57.2106 76.6267 57.1487 76.7107 57.1487 76.9047V78.3507C57.1487 78.5267 57.235 78.5927 57.4281 78.5587C58.2587 78.4287 59.1137 78.3367 59.7718 78.3367H59.8693C60.7993 78.3367 61.5512 78.4287 62.0068 78.7507C62.4568 79.0787 62.6818 79.5587 62.6818 80.6127V80.9167C61.9993 80.7667 61.1762 80.6647 60.4168 80.6647H60.2162C58.9581 80.6647 57.7768 80.9847 57.0212 81.7347C56.4418 82.3127 56.0593 83.1867 56.0593 84.2927V84.3867C56.0593 86.6247 57.5068 88.0007 60.445 88.0007H60.9681C62.1193 88.0007 63.2162 87.6347 63.8781 87.0487C64.6356 86.3807 64.93 85.3907 64.93 83.8067V80.5787C64.93 78.3727 64.1256 77.3547 62.8712 76.7807Z" fill="#61BB46"/>
</g>
<mask id="mask1" mask-type="alpha" maskUnits="userSpaceOnUse" x="95" y="76" width="9" height="13">
<path fill-rule="evenodd" clip-rule="evenodd" d="M95.1079 76.3147H103.979V88.0001H95.1079V76.3147Z" fill="white"/>
</mask>
<g mask="url(#mask1)">
<path fill-rule="evenodd" clip-rule="evenodd" d="M101.73 83.7527C101.73 84.5987 101.702 85.0947 101.414 85.4487C101.11 85.8167 100.568 85.9987 99.8385 85.9987H99.4823C98.1304 85.9987 97.3448 85.4187 97.3448 84.3067C97.3448 83.8027 97.5323 83.3487 97.821 83.0807C98.166 82.7627 98.6648 82.6127 99.5273 82.6127H99.7167C100.369 82.6127 101.114 82.6787 101.73 82.8547V83.7527ZM101.92 76.7807C101.316 76.5007 100.399 76.3147 99.2179 76.3147H99.0717C98.3517 76.3147 97.3617 76.4087 96.4185 76.5927C96.2554 76.6267 96.1973 76.7107 96.1973 76.9047V78.3507C96.1973 78.5267 96.2835 78.5927 96.4767 78.5587C97.3035 78.4287 98.1623 78.3367 98.8204 78.3367H98.9179C99.8442 78.3367 100.6 78.4287 101.055 78.7507C101.505 79.0787 101.73 79.5587 101.73 80.6127V80.9167C101.048 80.7667 100.221 80.6647 99.4654 80.6647H99.2629C98.0029 80.6647 96.8217 80.9847 96.066 81.7347C95.4867 82.3127 95.1079 83.1867 95.1079 84.2927V84.3867C95.1079 86.6247 96.5517 88.0007 99.4935 88.0007H100.013C101.168 88.0007 102.265 87.6347 102.927 87.0487C103.684 86.3807 103.979 85.3907 103.979 83.8067V80.5787C103.979 78.3727 103.172 77.3547 101.92 76.7807Z" fill="#61BB46"/>
</g>
<path fill-rule="evenodd" clip-rule="evenodd" d="M92.6655 77.9199C92.5039 77.5597 92.2689 77.2588 91.9814 77.0002C91.7296 76.7722 91.4214 76.5997 91.0925 76.4484C91.0718 76.4407 91.0455 76.433 91.0211 76.4234C90.8162 76.3353 90.602 76.2529 90.3709 76.1935C90.2769 76.1686 90.1735 76.1514 90.0702 76.1245C89.8879 76.092 89.7037 76.0613 89.5064 76.0441C89.3447 76.0287 89.1719 76.0134 88.9952 76.0096C88.9482 76.0096 88.8994 76 88.8505 76H88.1495C86.3773 76 84.9227 76.6304 84.3383 77.9199C84.0864 78.4755 84 79.219 84 80.0275V86.7528C84 86.9004 84.0902 87 84.2387 87H86.0203C86.1687 87 86.2552 86.9004 86.2552 86.7528L86.2589 81.1503C86.2589 80.3475 86.274 79.7631 86.3172 79.4048C86.4112 78.5273 87.02 78.0789 88.1533 78.0214C88.2529 78.0195 88.3431 78.008 88.4427 78.008H88.5611C89.8597 78.008 90.5776 78.4659 90.6828 79.4048C90.7242 79.7631 90.7373 80.3475 90.7373 81.1503V86.7528C90.7373 86.8314 90.7617 86.8889 90.8031 86.9349C90.835 86.9674 90.882 86.977 90.9346 86.9828C90.9516 86.9866 90.9591 87 90.976 87H92.7688C92.9136 87 93 86.8812 93 86.7337V80.0275C93 79.219 92.9136 78.4755 92.6655 77.9199Z" fill="#61BB46"/>
<path fill-rule="evenodd" clip-rule="evenodd" d="M75.7363 79.4207C76.1301 78.839 77.0823 78.9218 78.0788 78.9218C78.7758 78.9218 79.2713 79.063 79.5301 79.5073C79.6688 79.7426 79.7501 80.0965 79.7612 80.4806C79.7686 80.7893 79.8222 81.4011 79.6392 81.5649C79.4821 81.7061 78.9219 81.6402 78.6113 81.6402H75.3259C75.3758 80.7422 75.3887 79.9271 75.7363 79.4207ZM79.9147 83.4607C80.6727 83.4287 81.2606 83.2762 81.5934 82.8319C81.917 82.3914 81.9632 81.6986 81.9946 80.8985C82.0871 78.4869 80.9852 77.2162 78.9145 77.0279C78.565 76.9903 78.1805 77.0016 77.7867 77.0016C76.8419 77.0016 75.936 77.011 75.2612 77.2369C74.8729 77.3612 74.5253 77.5268 74.2295 77.7866C73.1184 78.7656 72.9723 80.7705 73.0037 82.9204C73.0204 83.969 73.1091 84.9592 73.3532 85.7687C73.7137 86.9735 74.5679 87.7454 75.9231 87.9431C76.3723 88.0089 76.9029 87.9995 77.4391 87.9995C79.2787 87.9995 80.216 87.9111 81.1516 87.7379C81.3087 87.7115 81.3697 87.6268 81.3697 87.4442V86.0868C81.3697 85.9137 81.2847 85.8591 81.0979 85.8892C80.2771 86.0115 78.2544 86.1245 77.1673 86.0774C76.4407 86.0492 75.9711 85.9381 75.7049 85.4844C75.6846 85.4543 75.6587 85.4298 75.642 85.3922C75.3998 84.8858 75.3758 84.2382 75.3259 83.4607C76.9196 83.4155 78.4153 83.5228 79.9147 83.4607Z" fill="#61BB46"/>
<path fill-rule="evenodd" clip-rule="evenodd" d="M83.7942 60.1265H81.9836C81.8313 60.1265 81.758 60.1853 81.758 60.335V70.5944C81.758 70.7422 81.8313 70.8029 81.9836 70.8029H83.7942C83.9465 70.8029 84.0179 70.7422 84.0179 70.5944L84.016 60.335C84.016 60.1853 83.9465 60.1265 83.7942 60.1265ZM66.9761 67.0179C66.7994 68.7503 65.9326 69.0194 64.5432 69.0194H64.483C63.0898 69.0194 62.223 68.7503 62.0501 67.0179C61.9955 66.4929 61.9542 66.0627 61.9542 65.4581C61.9542 64.8554 61.9955 64.4251 62.0501 63.9001C62.223 62.1678 63.0898 61.9025 64.483 61.9025H64.5432C65.9326 61.9025 66.7994 62.1678 66.9761 63.9001C67.0287 64.4251 67.0739 64.8554 67.0739 65.4581C67.0739 66.0627 67.0287 66.4929 66.9761 67.0179ZM69.0161 68.4034C69.2304 67.6775 69.3507 66.8417 69.3507 65.4581C69.3507 64.0745 69.2304 63.2406 69.0161 62.5147C68.4596 60.6591 67.0099 59.9237 64.6541 59.9237H64.374C62.0162 59.9237 60.5629 60.6591 60.0101 62.5147C59.792 63.2406 59.6679 64.0745 59.6679 65.4581C59.6679 66.8417 59.792 67.6775 60.0101 68.4034C60.5629 70.2589 62.0162 71 64.374 71H64.6541C67.0099 71 68.4596 70.2589 69.0161 68.4034ZM53.5987 59.9237H53.0441C51.4723 59.9237 50.4288 60.3426 49.9193 60.97H49.9061C49.4003 60.3426 48.2873 59.9237 46.7117 59.9237H46.1476C44.3746 59.9237 42.9194 60.5473 42.3347 61.8229C42.0827 62.3725 42 63.106 42 63.9001V70.5603C42 70.7062 42.0865 70.8029 42.235 70.8029H44.0231C44.1678 70.8029 44.2543 70.7062 44.2543 70.5603V65.0165C44.2543 64.2204 44.275 63.6424 44.3164 63.2898C44.416 62.363 45.1042 61.9081 46.4109 61.9081H46.5594C47.8624 61.9081 48.5787 62.363 48.6821 63.2898C48.7197 63.6424 48.7404 64.2204 48.7404 65.0165V70.5603C48.7404 70.7062 48.8306 70.8029 48.9792 70.8029H50.771C50.9195 70.8029 51.006 70.6854 51.006 70.5394V65.0165C51.006 64.2204 51.0267 63.6424 51.0643 63.2898C51.1677 62.363 51.884 61.9081 53.187 61.9081H53.3355C54.6422 61.9081 55.3266 62.363 55.43 63.2898C55.4714 63.6424 55.4883 64.2204 55.4883 65.0165V70.5603C55.4883 70.7138 55.5748 70.8029 55.7233 70.8029H57.5151C57.6599 70.8029 57.7464 70.6854 57.7464 70.5394V63.9001C57.7464 63.106 57.6599 62.3725 57.4117 61.8229C56.827 60.5473 55.368 59.9237 53.5987 59.9237ZM100.018 70.8029C100.17 70.8029 100.259 70.7195 100.259 70.583V69.0573C100.259 68.9208 100.17 68.8374 100.018 68.8374H99.7756C99.0573 68.8374 98.6136 68.6612 98.3448 68.3731C97.9856 67.9921 97.9123 67.3743 97.9123 66.6427V62.0162H99.9072C100.059 62.0162 100.135 61.9612 100.135 61.8115V60.3312C100.135 60.1815 100.059 60.1265 99.9072 60.1265H97.9123V58.2104C97.9123 58.0607 97.8371 58 97.6867 58H95.8686C95.7201 58 95.6505 58.0607 95.6505 58.2104V66.7678C95.6505 68.2575 95.9457 69.207 96.5943 69.8609C97.2035 70.4693 98.1549 70.8029 99.5368 70.8029H100.018ZM88.8518 66.0115C89.3388 66.1973 89.7505 66.347 90.2319 66.5214C91.2716 66.8909 91.7134 67.1885 91.7134 67.8253C91.7134 68.6536 91.0234 69.0933 89.461 69.0933H89.4008C88.5171 69.0933 87.5075 68.9208 86.6144 68.629C86.4358 68.5702 86.3324 68.6441 86.3324 68.8299V70.1945C86.3324 70.3651 86.3625 70.4693 86.5524 70.5356C87.4003 70.8275 88.5717 70.9962 89.5249 70.9962H89.602C92.3771 70.9962 93.8888 69.7472 93.8888 67.7363V67.7021C93.8888 66.9251 93.6368 66.2238 93.163 65.7556C92.6949 65.297 91.9936 64.935 90.9087 64.5313C90.3277 64.3114 89.8746 64.1446 89.4741 63.9949C88.5717 63.6632 88.3197 63.3505 88.3197 62.8823C88.3197 62.1091 89.0699 61.8077 90.2826 61.8077H90.3729C91.0704 61.8077 91.9221 61.9081 92.9449 62.0958C93.1348 62.1318 93.242 62.0882 93.242 61.8911V60.4886C93.242 60.3066 93.1931 60.2554 93.0032 60.2137C92.3395 60.0735 91.1268 59.9237 90.4481 59.9237H90.2826C88.865 59.9237 87.8102 60.1853 87.1089 60.8032C86.543 61.3016 86.1613 62.0617 86.1613 62.9638V63.0302C86.1613 63.8679 86.449 64.5426 86.9397 65.0013C87.4041 65.4353 88.0245 65.7064 88.8518 66.0115ZM74.2636 70.8029H76.2303C76.3957 70.8029 76.4728 70.7479 76.5424 70.6152C77.8171 68.2025 79.7593 64.0783 79.8909 60.335C79.8985 60.1891 79.8364 60.1228 79.6465 60.1228H77.8171C77.6028 60.1228 77.5407 60.1929 77.5295 60.3862C77.4467 61.747 77.1609 63.3296 76.7417 64.7454C76.313 66.2048 75.7677 67.5979 75.2375 68.629C74.7167 67.5979 74.1696 66.2048 73.7409 64.7454C73.3198 63.324 73.0321 61.7281 72.9494 60.3559C72.9362 60.1626 72.8328 60.1228 72.6448 60.1228H70.8022C70.6086 60.1228 70.5541 60.2137 70.5672 60.4165C70.8267 64.0783 71.9585 66.9289 73.9214 70.6228C73.9872 70.7555 74.0906 70.8029 74.2636 70.8029ZM117.765 59.9237H116.552C114.809 59.9237 113.444 60.5303 112.86 61.8039C112.608 62.3592 112.532 63.0927 112.532 63.8869V70.5944C112.532 70.7422 112.6 70.8029 112.752 70.8029H114.565C114.717 70.8029 114.785 70.7422 114.785 70.5944V64.9843C114.785 64.1939 114.802 63.6158 114.841 63.2557C114.945 62.3289 115.505 61.8911 116.812 61.8911H117.776C117.93 61.8911 118 61.8115 118 61.658V60.1531C118 59.9958 117.925 59.9237 117.765 59.9237ZM108.338 66.9668C108.338 67.7685 108.312 68.2385 108.024 68.574C107.715 68.9303 107.174 69.0971 106.441 69.0971H106.082C104.73 69.0971 103.938 68.5494 103.938 67.4993C103.938 67.0179 104.128 66.5877 104.418 66.3337C104.76 66.0343 105.266 65.8864 106.129 65.8864H106.322C106.973 65.8864 107.719 65.9528 108.338 66.1177V66.9668ZM108.526 60.3559C107.92 60.0943 107.005 59.9237 105.815 59.9237H105.67C104.944 59.9237 103.959 60.009 103.011 60.1815C102.85 60.2099 102.786 60.2933 102.786 60.4829V61.8475C102.786 62.0162 102.876 62.0787 103.064 62.0484C103.897 61.9214 104.756 61.8342 105.42 61.8342H105.51C106.448 61.8342 107.2 61.9214 107.657 62.2322C108.11 62.5374 108.338 62.9961 108.338 63.9873V64.2849C107.65 64.137 106.824 64.0442 106.063 64.0404H105.864C104.602 64.0404 103.416 64.3493 102.658 65.062C102.079 65.6097 101.697 66.4304 101.697 67.4842V67.5752C101.697 69.6884 103.147 70.9962 106.091 70.9962H106.617C107.776 70.9962 108.874 70.6494 109.534 70.0978C110.299 69.4648 110.592 68.5228 110.592 67.0255V63.9627C110.592 61.8683 109.784 60.9036 108.526 60.3559Z" fill="#61BB46"/>
<mask id="mask2" mask-type="alpha" maskUnits="userSpaceOnUse" x="48" y="0" width="63" height="47">
<path fill-rule="evenodd" clip-rule="evenodd" d="M48.1797 0.234375H110.882V46.9086H48.1797V0.234375Z" fill="white"/>
</mask>
<g mask="url(#mask2)">
<path fill-rule="evenodd" clip-rule="evenodd" d="M59.9678 5.64122C57.06 5.685 51.7011 7.13144 49.25 17.2242C48.1858 21.6187 47.7687 26.1997 48.682 31.6543C49.5255 36.6864 51.0199 41.0295 52.0238 43.4237C52.3729 44.2459 52.9069 45.1043 53.3239 45.6353C54.5164 47.1559 56.5053 47.0589 57.3374 46.6459C58.2507 46.1948 59.2942 45.1005 58.9168 42.6111C58.7356 41.4082 58.2054 39.6478 57.9073 38.6676C56.9978 35.6625 55.7845 32.0406 55.6788 29.4618C55.5373 26.0075 56.8827 25.5526 57.7827 25.3547C59.2904 25.0197 60.5547 26.6888 61.7547 28.7824C63.1869 31.2813 65.6437 35.7043 67.6458 39.0844C69.4535 42.1353 72.7915 45.4031 78.1504 45.1785C83.6149 44.9463 87.6436 42.8452 89.7173 36.2296C91.2684 31.2775 92.327 27.5738 94.0309 23.7845C95.9895 19.4243 98.6029 17.0947 100.803 17.8084C102.843 18.467 103.352 20.4825 103.381 23.4381C103.401 26.057 103.103 28.9422 102.867 31.0624C102.781 31.8332 102.628 33.3805 102.69 34.2389C102.815 35.9308 103.539 37.6171 105.428 37.8854C107.436 38.1747 109.045 36.5532 109.691 34.5986C109.943 33.8278 110.162 32.644 110.277 31.8085C110.868 27.5757 111.023 24.7342 110.757 20.4044C110.443 15.3457 109.462 10.7285 107.745 6.73366C106.111 2.91392 103.477 0.466394 100.097 0.249428C96.3612 0.0115268 92.0741 2.51044 89.8211 7.36553C87.7511 11.8381 86.0887 16.4286 85.083 18.7696C84.0621 21.1486 82.5639 22.6121 80.2562 22.8577C77.4352 23.1584 75.0067 21.0934 73.2236 18.151C71.6744 15.5836 68.6006 10.6981 66.9552 9.05748C65.4079 7.51208 63.6455 5.58222 59.9678 5.64122Z" fill="#61BB46"/>
</g>
<mask id="mask3" mask-type="alpha" maskUnits="userSpaceOnUse" x="151" y="18" width="10" height="53">
<path fill-rule="evenodd" clip-rule="evenodd" d="M151.445 18.0239H160.646V70.6397H151.445V18.0239Z" fill="white"/>
</mask>
<g mask="url(#mask3)">
<path fill-rule="evenodd" clip-rule="evenodd" d="M154.222 70.6397C153.939 70.6397 153.654 70.5949 153.371 70.5053C151.911 70.033 151.108 68.4536 151.58 66.9844C153.91 59.6792 155.095 52.0567 155.095 44.3297C155.095 36.6026 153.91 28.9857 151.58 21.6806C151.11 20.2132 151.911 18.6338 153.371 18.1596C154.832 17.6854 156.398 18.4938 156.865 19.9668C159.374 27.8245 160.647 36.022 160.647 44.3297C160.647 52.6373 159.374 60.8404 156.861 68.6963C156.487 69.8855 155.397 70.6397 154.222 70.6397Z" fill="#61BB46"/>
</g>
<path fill-rule="evenodd" clip-rule="evenodd" d="M140.811 60C140.614 60 140.416 59.9791 140.216 59.9354C138.701 59.601 137.734 58.0846 138.065 56.5492C138.939 52.4372 139.383 48.2111 139.383 43.9907C139.383 39.778 138.943 35.5595 138.069 31.4513C137.737 29.9121 138.705 28.3957 140.219 28.0632C141.737 27.7363 143.227 28.7093 143.553 30.2484C144.511 34.75 145 39.377 145 43.9907C145 48.6196 144.511 53.2429 143.551 57.7502C143.269 59.0898 142.104 60 140.811 60Z" fill="#61BB46"/>
<path fill-rule="evenodd" clip-rule="evenodd" d="M6.28403 70C5.13555 70 4.06859 69.2403 3.69905 68.0424C1.24087 60.1291 0 51.8661 0 43.4978C0 35.1295 1.24087 26.8721 3.69542 18.957C4.15554 17.4733 5.68443 16.659 7.11369 17.1367C8.54295 17.6143 9.32732 19.2052 8.8654 20.6833C6.58655 28.0418 5.43082 35.7181 5.43082 43.4978C5.43082 51.2813 6.59017 58.9557 8.86902 66.3179C9.32732 67.7979 8.54476 69.3888 7.11731 69.8646C6.84016 69.9549 6.56119 70 6.28403 70Z" fill="#61BB46"/>
<path fill-rule="evenodd" clip-rule="evenodd" d="M20.1897 60C18.8961 60 17.7317 59.0898 17.4471 57.7502C16.4886 53.2431 16 48.62 16 43.9913C16 39.3778 16.4867 34.7509 17.4434 30.2495C17.7729 28.7104 19.263 27.7337 20.7813 28.0643C22.2958 28.3968 23.26 29.9131 22.9323 31.4523C22.0581 35.5604 21.6144 39.7787 21.6144 43.9913C21.6144 48.2115 22.0581 52.4374 22.9361 56.5493C23.2637 58.0847 22.2996 59.601 20.7851 59.9354C20.5829 59.9791 20.3863 60 20.1897 60Z" fill="#61BB46"/>
</svg>
