<svg width="176" height="91" viewBox="0 0 176 91" fill="none" xmlns="http://www.w3.org/2000/svg">
<path fill-rule="evenodd" clip-rule="evenodd" d="M10.8173 1C5.4051 1 1 5.06353 1 10.0573V80.9427C1 85.9365 5.4051 90 10.8173 90H166.182C171.595 90 176 85.9365 176 80.9427V10.0573C176 5.06353 171.595 1 166.182 1H10.8173Z" fill="#03A8DF"/>
<path fill-rule="evenodd" clip-rule="evenodd" d="M176 29V9.13843C176 4.09993 171.597 0 166.183 0H10.8158C5.40275 0 1 4.09993 1 9.13843V29H176Z" fill="#50535A"/>
<path fill-rule="evenodd" clip-rule="evenodd" d="M35.2285 19.0666H36.6086C37.6724 19.0666 38.3358 18.8557 38.819 18.4082C39.4537 17.8298 39.729 16.843 39.729 15.4604C39.729 14.237 39.5225 13.3552 39.0393 12.7893C38.5283 12.1976 37.7412 11.9343 36.3194 11.9343H35.2285V19.0666ZM34 20V11H36.3882C38.1278 11 39.2457 11.3292 39.9918 12.1059C40.6683 12.816 41 13.8953 41 15.4479C41 17.1056 40.6266 18.2898 39.8674 19.0266C39.1769 19.6975 38.1278 20 36.6511 20H34Z" fill="#FEFEFE"/>
<mask id="mask0" mask-type="alpha" maskUnits="userSpaceOnUse" x="0" y="0" width="176" height="91">
<path fill-rule="evenodd" clip-rule="evenodd" d="M0 91H176V0H0V91Z" fill="white"/>
</mask>
<g mask="url(#mask0)">
<path fill-rule="evenodd" clip-rule="evenodd" d="M43.0973 20H43.9021V13.6183H43.0973V20ZM43.4758 12.4073C43.1838 12.4073 43 12.2118 43 11.7169V11.6905C43 11.1955 43.1838 11 43.4758 11H43.5242C43.8157 11 44 11.1955 44 11.6905V11.7169C44 12.2118 43.8157 12.4073 43.5242 12.4073H43.4758Z" fill="#FEFEFE"/>
<path fill-rule="evenodd" clip-rule="evenodd" d="M50.4727 14.1083C49.8457 13.974 49.2052 13.8927 48.6356 13.8927C47.6385 13.8927 47.1112 14.2033 47.1112 14.8247C47.1112 16.3113 51 15.6086 51 17.9733C51 19.3787 49.8601 20 48.1793 20C47.5101 20 46.6557 19.8785 46.1284 19.7167L46.1851 18.8523C46.7546 19.0004 47.5244 19.0954 48.137 19.0954C49.2762 19.0954 49.8888 18.7299 49.8888 18.0538C49.8888 16.568 46 17.3383 46 14.9051C46 13.6222 47.0538 13 48.5359 13C49.2331 13 50.0172 13.1224 50.5732 13.285L50.4727 14.1083Z" fill="#FEFEFE"/>
<path fill-rule="evenodd" clip-rule="evenodd" d="M52.3482 12.1894C52.7122 12.0887 53.2119 12 53.6056 12V13.6408H55.5605V14.4104H53.6056V17.8422C53.6056 18.4352 53.6515 18.7381 53.8636 18.9275C54.0299 19.0785 54.2878 19.1672 54.8181 19.1672C55.076 19.1672 55.5758 19.1297 55.9389 19.0665L56 19.8362C55.6063 19.9241 55.0149 20 54.4702 20C53.7422 20 53.1517 19.8362 52.8183 19.5205C52.4551 19.1672 52.3482 18.7508 52.3482 17.9812V14.4104H51V13.8166L52.3482 13.6527V12.1894Z" fill="#FEFEFE"/>
<path fill-rule="evenodd" clip-rule="evenodd" d="M58.1255 13.1674L58.2069 13.6673C58.9758 13.2028 59.7758 13 60.4761 13C60.6233 13 60.8199 13.0128 61 13.0369V13.9168C60.8199 13.9055 60.5255 13.8934 60.2969 13.8934C59.5957 13.8934 58.9255 14.0246 58.3541 14.2863V19H57V13.1674H58.1255Z" fill="#FEFEFE"/>
<path fill-rule="evenodd" clip-rule="evenodd" d="M63.0973 20H63.9022V13.6183H63.0973V20ZM63.4755 12.4073C63.1842 12.4073 63 12.2118 63 11.7169V11.6905C63 11.1955 63.1842 11 63.4755 11H63.5245C63.8152 11 64 11.1955 64 11.6905V11.7169C64 12.2118 63.8152 12.4073 63.5245 12.4073H63.4755Z" fill="#FEFEFE"/>
<path fill-rule="evenodd" clip-rule="evenodd" d="M67.2029 18.7161C67.6818 18.9632 68.3766 19.1485 68.957 19.1485C70.1599 19.1485 70.7394 18.5308 70.7394 16.7785C70.7394 15.1481 70.1891 14.4819 68.9278 14.4819C68.3766 14.4819 67.6818 14.6297 67.2029 14.8275V18.7161ZM67.2029 14.0871C67.7825 13.8149 68.5511 13.6046 69.2468 13.6046C70.9716 13.6046 72 14.6055 72 16.7785C72 18.9749 71 20 69.233 20C68.4643 20 67.5942 19.7529 67.0292 19.4198L66.9716 19.8272H66V11H67.2029V14.0871Z" fill="#FEFEFE"/>
<path fill-rule="evenodd" clip-rule="evenodd" d="M77.9753 19.8326L77.9154 19.4044C77.1586 19.7731 76.282 20 75.4353 20C74.6485 20 74.0247 19.8326 73.6088 19.4873C73.2079 19.1661 73 18.6904 73 17.9643V14H74.2326V17.8452C74.2326 18.3443 74.3366 18.6308 74.5894 18.8329C74.8414 19.0349 75.2273 19.1307 75.763 19.1307C76.4159 19.1307 77.1736 18.9754 77.7674 18.7499V14H79V19.8326H77.9753Z" fill="#FEFEFE"/>
<path fill-rule="evenodd" clip-rule="evenodd" d="M81.0968 20H81.9021V13.6183H81.0968V20ZM81.4758 12.4073C81.1838 12.4073 81 12.2118 81 11.7169V11.6905C81 11.1955 81.1838 11 81.4758 11H81.5242C81.8151 11 82 11.1955 82 11.6905V11.7169C82 12.2118 81.8151 12.4073 81.5242 12.4073H81.4758Z" fill="#FEFEFE"/>
<path fill-rule="evenodd" clip-rule="evenodd" d="M88.8037 18.8021V14.765C88.2835 14.5922 87.6494 14.4686 87.1737 14.4686C85.731 14.4686 85.2553 15.4312 85.2553 16.8512C85.2553 18.444 85.9047 19.1602 87.1737 19.1602C87.6785 19.1602 88.2981 19.0116 88.8037 18.8021ZM88.933 19.4566C88.3562 19.7772 87.5057 20 86.8417 20C85.0388 20 84 18.9374 84 16.8394C84 14.8385 85.0824 13.6046 86.9281 13.6046C87.5339 13.6046 88.2415 13.7649 88.8037 14.0362V11H90V19.8264H89.021L88.933 19.4566Z" fill="#FEFEFE"/>
<path fill-rule="evenodd" clip-rule="evenodd" d="M95 13.9192C93.6552 13.9192 93.1708 14.811 93.1708 16.5004C93.1708 18.189 93.6552 19.0808 95 19.0808C96.3456 19.0808 96.83 18.189 96.83 16.5004C96.83 14.811 96.3456 13.9192 95 13.9192ZM95 20C92.9553 20 92 18.7025 92 16.5004C92 14.2975 92.9553 13 95 13C97.0447 13 98 14.2975 98 16.5004C98 18.7025 97.0447 20 95 20Z" fill="#FEFEFE"/>
<path fill-rule="evenodd" clip-rule="evenodd" d="M100.125 13.1674L100.207 13.6673C100.976 13.2028 101.776 13 102.476 13C102.623 13 102.82 13.0128 103 13.0369V13.9168C102.82 13.9055 102.525 13.8934 102.297 13.8934C101.596 13.8934 100.925 14.0246 100.354 14.2863V19H99V13.1674H100.125Z" fill="#FEFEFE"/>
<path fill-rule="evenodd" clip-rule="evenodd" d="M111 11.9749C108.934 11.9749 108.362 13.3795 108.362 15.5064C108.362 17.6334 108.934 19.0251 111 19.0251C113.065 19.0251 113.637 17.6334 113.637 15.5064C113.637 13.3795 113.065 11.9749 111 11.9749ZM111 20C107.997 20 107 18.0374 107 15.5064C107 12.9746 107.997 11 111 11C114.002 11 115 12.9746 115 15.5064C115 18.0374 114.002 20 111 20Z" fill="#FEFEFE"/>
<path fill-rule="evenodd" clip-rule="evenodd" d="M117.366 12.3736C117.366 11.5988 117.566 11.0459 118.042 10.6401C118.517 10.2344 119.285 10 120.361 10C120.913 10 121.542 10.0615 122.048 10.1363V10.9104C121.588 10.8738 121.081 10.8364 120.559 10.8364C119.853 10.8364 119.362 10.947 119.07 11.193C118.779 11.4267 118.64 11.7833 118.64 12.3736V12.9756H123V19H121.727V13.7263H118.64V19H117.366V13.7263H116V13.1477L117.366 12.9881V12.3736Z" fill="#FEFEFE"/>
<path fill-rule="evenodd" clip-rule="evenodd" d="M129 19.7835C128.563 19.9059 127.812 20 127.32 20C126.226 20 125.434 19.7296 124.888 19.1758C124.328 18.6075 124 17.7431 124 16.5817C124 15.4195 124.3 14.514 124.875 13.9063C125.448 13.2978 126.308 13 127.334 13C127.852 13 128.467 13.0822 128.932 13.2028L128.863 14.0681C128.441 13.9868 127.894 13.9063 127.471 13.9063C125.899 13.9063 125.19 14.8118 125.19 16.568C125.19 17.4059 125.38 18.041 125.748 18.4595C126.132 18.8925 126.705 19.0808 127.524 19.0808C127.976 19.0808 128.577 19.0132 128.919 18.9456L129 19.7835Z" fill="#FEFEFE"/>
<path fill-rule="evenodd" clip-rule="evenodd" d="M131.098 20H131.903V13.6183H131.098V20ZM131.476 12.4073C131.184 12.4073 131 12.2118 131 11.7169V11.6905C131 11.1955 131.184 11 131.476 11H131.524C131.816 11 132 11.1955 132 11.6905V11.7169C132 12.2118 131.816 12.4073 131.524 12.4073H131.476Z" fill="#FEFEFE"/>
<path fill-rule="evenodd" clip-rule="evenodd" d="M137.733 16.6896H136.36C135.58 16.6896 135.046 16.7846 134.694 17.0276C134.436 17.2168 134.282 17.5001 134.282 17.9057C134.282 18.7025 134.848 19.0954 135.826 19.0954C136.435 19.0954 137.183 18.9054 137.733 18.6623V16.6896ZM137.901 19.365C137.244 19.7432 136.451 20 135.55 20C134.741 20 134.053 19.7835 133.596 19.365C133.229 19.0278 133 18.5545 133 17.9331C133 17.3109 133.245 16.8248 133.641 16.5004C134.206 16.0408 135.092 15.8654 136.175 15.8654H137.733V15.446C137.733 14.906 137.625 14.5688 137.353 14.3249C137.032 14.0544 136.542 13.9329 135.794 13.9329C135.23 13.9329 134.512 13.9868 133.779 14.0955L133.734 13.2302C134.436 13.0822 135.29 13 136.008 13C137.123 13 137.871 13.2174 138.343 13.6085C138.817 14.0142 139 14.5414 139 15.4058V19.8109H137.977L137.901 19.365Z" fill="#FEFEFE"/>
<path fill-rule="evenodd" clip-rule="evenodd" d="M141 20H142V11H141V20Z" fill="#FEFEFE"/>
<path fill-rule="evenodd" clip-rule="evenodd" d="M10.6284 0.791011C5.2378 0.791011 0.850303 4.87362 0.850303 9.89085V81.1091C0.850303 86.1264 5.2378 90.209 10.6284 90.209H165.372C170.764 90.209 175.151 86.1264 175.151 81.1091V9.89085C175.151 4.87362 170.764 0.791011 165.372 0.791011H10.6284ZM165.372 91H10.6284C4.76906 91 0 86.5628 0 81.1091V9.89085C0 4.4372 4.76906 0 10.6284 0H165.372C171.233 0 176 4.4372 176 9.89085V81.1091C176 86.5628 171.233 91 165.372 91Z" fill="#FEFEFE"/>
<path fill-rule="evenodd" clip-rule="evenodd" d="M114.045 51.4538H111.872C111.691 51.4538 111.605 51.5217 111.605 51.6944L111.608 63.5343C111.608 63.7062 111.694 63.7749 111.875 63.7749H114.045C114.228 63.7749 114.314 63.7062 114.314 63.5343L114.312 51.6944C114.312 51.5217 114.227 51.4538 114.045 51.4538ZM93.9064 59.4051C93.6956 61.403 92.6577 61.7157 90.9914 61.7157H90.9206C89.2544 61.7157 88.2157 61.403 88.0089 59.4051C87.9438 58.8019 87.8915 58.3027 87.8915 57.6086C87.8915 56.9121 87.9438 56.4137 88.0089 55.8096C88.2157 53.8118 89.2544 53.4999 90.9206 53.4999H90.9914C92.6577 53.4999 93.6956 53.8118 93.9064 55.8096C93.9707 56.4137 94.0214 56.9121 94.0214 57.6086C94.0214 58.3027 93.9707 58.8019 93.9064 59.4051ZM96.3458 61.0069C96.6073 60.1688 96.7537 59.2038 96.7537 57.6086C96.7537 56.0126 96.6073 55.0452 96.3458 54.2087C95.6869 52.0684 93.9474 51.2172 91.1258 51.2172H90.7895C87.9671 51.2172 86.2284 52.0684 85.5655 54.2087C85.3056 55.0452 85.1608 56.0126 85.1608 57.6086C85.1608 59.2038 85.3056 60.1688 85.5655 61.0069C86.2284 63.1463 87.9671 64 90.7895 64H91.1258C93.9474 64 95.6869 63.1463 96.3458 61.0069ZM77.8859 51.2172H77.2294C75.3427 51.2172 74.09 51.7042 73.4834 52.4261H73.4689C72.8614 51.7042 71.5307 51.2172 69.644 51.2172H68.9714C66.8441 51.2172 65.1006 51.9358 64.4007 53.4082C64.099 54.0426 64 54.8929 64 55.8113V63.4926C64 63.6612 64.103 63.7749 64.2792 63.7749H66.4217C66.5979 63.7749 66.6985 63.6612 66.6985 63.4926L66.7033 57.0954C66.7033 56.1796 66.7259 55.5142 66.7733 55.1041C66.8972 54.0311 67.7163 53.5097 69.2803 53.5097H69.459C71.0214 53.5097 71.8799 54.0311 72.0022 55.1041C72.0513 55.5142 72.073 56.1796 72.073 57.0954V63.495C72.073 63.6644 72.1792 63.7749 72.357 63.7749H74.5036C74.6798 63.7749 74.7803 63.6415 74.7803 63.4729L74.7827 57.0954C74.7827 56.1796 74.8053 55.5142 74.8527 55.1041C74.9758 54.0311 75.8335 53.5097 77.3968 53.5097H77.5754C79.1394 53.5097 79.9585 54.0311 80.0816 55.1041C80.1291 55.5142 80.15 56.1796 80.15 57.0954V63.495C80.15 63.6693 80.2546 63.7749 80.4324 63.7749H82.5789C82.7551 63.7749 82.8549 63.6415 82.8549 63.4729V55.8113C82.8549 54.8929 82.7543 54.0426 82.4534 53.4082C81.7551 51.9358 80.01 51.2172 77.8859 51.2172ZM133.47 63.7749C133.655 63.7749 133.757 63.6775 133.757 63.5179V61.7607C133.757 61.6027 133.655 61.5045 133.47 61.5045H133.181C132.319 61.5045 131.79 61.3023 131.466 60.9709C131.036 60.5322 130.948 59.8201 130.948 58.9754V53.6366H133.337C133.517 53.6366 133.607 53.5687 133.607 53.3968V51.6911C133.607 51.5192 133.517 51.4521 133.337 51.4521H130.948V49.2406C130.948 49.0688 130.858 49 130.677 49H128.506C128.324 49 128.242 49.0688 128.242 49.2406V59.1187C128.242 60.8375 128.593 61.935 129.371 62.6855C130.1 63.3894 131.241 63.7749 132.895 63.7749H133.47ZM120.101 58.2486C120.687 58.4598 121.174 58.6333 121.754 58.8339C122.996 59.2627 123.528 59.6032 123.528 60.3406C123.528 61.2958 122.699 61.8024 120.826 61.8024H120.759C119.701 61.8024 118.489 61.6003 117.425 61.2696C117.206 61.2009 117.084 61.2819 117.084 61.4971V63.071C117.084 63.2683 117.119 63.3886 117.346 63.4655C118.363 63.806 119.765 63.9967 120.909 63.9967H120.998C124.325 63.9967 126.13 62.5587 126.13 60.2326V60.1982C126.13 59.3012 125.827 58.4885 125.259 57.9475C124.705 57.4171 123.861 57.0062 122.559 56.5356C121.866 56.2843 121.326 56.092 120.846 55.9201C119.763 55.5363 119.459 55.1753 119.459 54.6351C119.459 53.7414 120.361 53.3919 121.811 53.3919L121.922 53.3927C122.759 53.3927 123.773 53.5097 125.003 53.7266C125.23 53.7667 125.359 53.7184 125.359 53.4893V51.8736C125.359 51.6608 125.3 51.6019 125.074 51.5544C124.274 51.3891 122.824 51.2172 122.01 51.2172H121.813C120.115 51.2172 118.855 51.5233 118.017 52.2346C117.334 52.8124 116.877 53.6857 116.877 54.7293L116.877 54.8037C116.877 55.7712 117.222 56.5512 117.814 57.0823C118.365 57.5783 119.11 57.8918 120.101 58.2486ZM102.633 63.7749H104.985C105.188 63.7749 105.278 63.7111 105.36 63.5597C106.885 60.7736 109.215 56.0134 109.373 51.696C109.38 51.5241 109.306 51.4505 109.076 51.4505L106.885 51.4513C106.629 51.4513 106.558 51.5307 106.545 51.7517C106.443 53.3248 106.1 55.1508 105.601 56.782C105.086 58.4696 104.432 60.0755 103.803 61.2696C103.175 60.0755 102.519 58.4696 102.004 56.782C101.503 55.1401 101.157 53.301 101.059 51.7214C101.045 51.4963 100.921 51.4513 100.695 51.4513H98.4892C98.2558 51.4513 98.1907 51.5569 98.2076 51.7869C98.5173 56.0167 99.8714 59.302 102.221 63.5687C102.302 63.7184 102.427 63.7749 102.633 63.7749ZM154.723 51.2164H153.268C151.178 51.2164 149.547 51.9195 148.848 53.3911C148.546 54.0262 148.452 54.8766 148.452 55.7949V63.5343C148.452 63.7062 148.538 63.7749 148.72 63.7749H150.89C151.071 63.7749 151.153 63.7062 151.153 63.5343V57.0602C151.153 56.1452 151.172 55.479 151.22 55.0681C151.343 53.9959 152.013 53.4901 153.576 53.4901H154.731C154.918 53.4901 155 53.3968 155 53.2216V51.4832C155 51.304 154.91 51.2164 154.723 51.2164ZM143.43 59.3495C143.43 60.2743 143.399 60.8178 143.055 61.2033C142.689 61.6117 142.039 61.8057 141.16 61.8057H140.732C139.108 61.8057 138.165 61.1722 138.165 59.9584C138.165 59.4027 138.39 58.9075 138.739 58.6153C139.151 58.2707 139.754 58.1021 140.787 58.1021H141.016C141.799 58.1021 142.692 58.1783 143.43 58.3673V59.3495ZM143.657 51.7214C142.933 51.4194 141.833 51.2172 140.411 51.2172H140.239C139.371 51.2172 138.19 51.3195 137.053 51.5192C136.86 51.5528 136.786 51.6486 136.786 51.863V53.4402C136.786 53.6366 136.89 53.7045 137.119 53.6718C138.117 53.5261 139.146 53.4246 139.938 53.4246H140.05C141.17 53.4246 142.074 53.5253 142.619 53.8813C143.161 54.2357 143.43 54.7644 143.43 55.9128V56.2516C142.609 56.083 141.619 55.9725 140.713 55.9717H140.471C138.958 55.9717 137.538 56.3269 136.632 57.1478C135.936 57.7797 135.48 58.7307 135.48 59.9437V60.0485C135.48 62.4908 137.215 63.9975 140.742 63.9975H141.37C142.758 63.9975 144.074 63.5965 144.868 62.9597C145.779 62.2272 146.134 61.1436 146.134 59.4101V55.88C146.134 53.4672 145.163 52.3516 143.657 51.7214Z" fill="#FEFEFE"/>
<path fill-rule="evenodd" clip-rule="evenodd" d="M27.5796 46.8955C25.9582 46.9205 22.964 47.6944 21.5969 53.0986C21.0014 55.4533 20.771 57.9082 21.282 60.8292C21.7515 63.524 22.5846 65.8505 23.1458 67.1316C23.3395 67.5735 23.64 68.0339 23.8704 68.3175C24.5376 69.1325 25.6457 69.0808 26.112 68.8587C26.6206 68.6164 27.2042 68.0323 26.9929 66.6978C26.8909 66.0532 26.5967 65.1097 26.4309 64.5854C25.9215 62.9771 25.2439 61.036 25.1849 59.653C25.106 57.8032 25.8593 57.5617 26.36 57.455C27.201 57.2757 27.9073 58.1699 28.5769 59.2903C29.3764 60.6281 30.7484 62.9981 31.866 64.8084C32.876 66.4426 34.7382 68.1923 37.7299 68.0727C40.7807 67.9499 43.0279 66.8239 44.1862 63.2784C45.0527 60.6256 45.6442 58.6433 46.5952 56.6133C47.6881 54.2796 49.1453 53.0299 50.3738 53.4112C51.5137 53.7658 51.7983 54.8442 51.8119 56.4291C51.8238 57.8315 51.6564 59.3768 51.5257 60.5125C51.4786 60.9245 51.3925 61.7541 51.4276 62.2146C51.497 63.1193 51.9019 64.0232 52.9542 64.1678C54.0758 64.3213 54.9758 63.4537 55.3353 62.406C55.4772 61.9924 55.5976 61.3599 55.663 60.9108C55.993 58.6457 56.0783 57.1222 55.9292 54.8038C55.7554 52.0929 55.2078 49.621 54.2512 47.4812C53.3368 45.435 51.8669 44.124 49.9824 44.0084C47.8954 43.88 45.5015 45.2201 44.2452 47.8188C43.0877 50.2147 42.1614 52.6737 41.6002 53.929C41.0302 55.2021 40.1924 55.9865 38.905 56.1181C37.3305 56.2781 35.9746 55.1722 34.9813 53.5954C34.1148 52.2205 32.3985 49.6032 31.4802 48.7244C30.6176 47.898 29.6315 46.864 27.5796 46.8955Z" fill="#FEFEFE"/>
<path fill-rule="evenodd" clip-rule="evenodd" d="M1 29H176V28H1V29Z" fill="#FEFEFE"/>
</g>
</svg>
